Lorem ipsum dolor sit amet, consectetur adipiscing elit. Aliquam quis faucibus lorem. Nulla vitae magna eu lectus ultricies hendrerit non sit amet sem. Sed pretium hendrerit maximus. Mauris a arcu tempus, mollis nunc sed, varius felis. Suspendisse vitae vestibulum urna, id molestie nibh. Phasellus ut mauris sed nisl finibus porta sed non tortor. Curabitur maximus, nisl tempus pulvinar interdum, libero eros consequat justo, ac ultricies turpis mauris id nibh. Fusce pretium, ipsum at hendrerit blandit, nisl elit facilisis erat, sed mollis purus leo vestibulum enim. Vestibulum vehicula leo quis velit dapibus ornare. In sagittis nisi sit amet nisl mollis suscipit a ac tortor. Nunc ut lorem egestas, aliquam nisl vel, consectetur orci. Fusce gravida sit amet nisi ut mattis. Fusce iaculis venenatis erat sit amet egestas. Ut id varius nibh. Maecenas malesuada sed ex ut bibendum. Aenean purus enim, blandit a blandit et, ornare et turpis.

Vestibulum neque tellus, rutrum quis rhoncus ac, consectetur non lorem. Quisque convallis semper tellus ac condimentum. Duis non nisl ut libero vestibulum tristique. Vivamus ut pharetra nulla, viverra porttitor enim. Nulla at varius nibh. Aenean vel tristique erat, sed consequat metus. Mauris sollicitudin, eros eget ornare convallis, mi odio volutpat nisi, quis consectetur ipsum nisi et orci. Quisque condimentum eros et nibh tristique, a ullamcorper leo euismod. Quisque at ipsum eros. Suspendisse eget lacus malesuada, ullamcorper lorem eu, tincidunt lacus. Donec faucibus nunc eu nibh tempor, ut gravida metus volutpat. Nullam convallis tortor diam, sed ultricies lacus semper ut. Proin egestas mattis ex, sed egestas purus fringilla nec. Duis neque sem, auctor vel magna eu, mollis consequat turpis.

Nulla scelerisque ac est ut sagittis. Vestibulum eget nisl eget tortor commodo dictum. Nulla sed eros nisi. Duis porta porttitor lectus, ut auctor sapien tempus in. Sed non bibendum erat, et pharetra enim. Morbi dictum, tellus sed iaculis euismod, lectus nulla mattis leo, et cursus ante arcu in lectus. Praesent quis ultrices leo. Sed vel euismod dui, sit amet facilisis dolor. Quisque auctor euismod ligula, quis pellentesque sapien rutrum quis. Vestibulum sed neque tellus. Phasellus aliquam tempor fermentum. Quisque accumsan finibus blandit. Quisque mi quam, tristique imperdiet purus viverra, lobortis fringilla ex.

In id faucibus diam. Proin sagittis nunc sit amet commodo hendrerit. Praesent laoreet lorem nec porttitor congue. Phasellus quis turpis at dui tincidunt aliquet viverra nec orci. Curabitur id consequat mi, laoreet dignissim lorem. Vestibulum porta cursus massa, vel fringilla nisl iaculis vel. Nunc eget orci non velit viverra fringilla. Suspendisse sed metus massa. Nam ornare consectetur sem, ac commodo nisi convallis eget. Mauris eu leo id dolor placerat aliquam a efficitur elit. Etiam a tempor mauris, ac dignissim neque. Curabitur placerat, velit sed imperdiet cursus, justo lectus cursus justo, ut feugiat mauris turpis ut elit. Aenean quis nibh nisi. Fusce consequat ullamcorper ante, sed porttitor velit mattis vel.

Fusce venenatis, lorem et maximus vehicula, ipsum orci porta erat, vel sagittis leo turpis ac magna. Nullam ut turpis mollis, mattis ipsum facilisis, mattis nisl. Donec varius arcu pulvinar ligula tincidunt, at interdum nibh viverra. Etiam tempus condimentum risus in dapibus. Curabitur tincidunt justo egestas diam fringilla commodo. Mauris nisi ipsum, cursus id ipsum ac, interdum dignissim ex. In pharetra massa malesuada purus blandit ullamcorper. Duis semper ante in elementum placerat.

Etiam vel pretium nulla. Pellentesque sed augue dolor. Pellentesque quam purus, eleifend ut velit non, efficitur tempor tortor. Sed ut lorem est. Fusce a eros suscipit, lobortis nisi eget, pretium neque. Sed volutpat, eros ut sodales egestas, metus erat laoreet enim, at interdum erat est nec massa. Proin sed nibh ut ex pretium convallis id nec augue. Mauris in dolor venenatis purus hendrerit cursus non vitae ligula. Sed consectetur ornare felis, quis tristique nibh sagittis vel. Cras porta viverra ex nec ullamcorper. Sed rutrum, nisi vel posuere molestie, ante risus accumsan eros, congue volutpat lectus dolor sit amet leo.

Nullam non fermentum velit. Pellentesque ac semper tellus. Proin vitae nunc id erat iaculis ultrices quis elementum leo. Mauris finibus erat sed libero blandit feugiat. Quisque dictum, nisi in posuere ultricies, metus mi rutrum nisi, non placerat magna quam vitae tellus. In pulvinar velit velit, vel commodo velit dignissim vel. Morbi nulla orci, sagittis et lobortis quis, convallis et nisi. Maecenas mauris enim, posuere id auctor luctus, laoreet quis ipsum. Suspendisse in mauris at nibh blandit commodo. Donec at eleifend velit. Pellentesque habitant morbi tristique senectus et netus et malesuada fames ac turpis egestas. Mauris a tellus quis magna interdum tincidunt eu non dolor. Morbi eleifend, metus quis vestibulum congue, ipsum felis commodo sem, eget suscipit risus velit a massa. Duis in arcu ullamcorper, tempus orci ut, imperdiet risus. Maecenas eu eros a felis mattis ullamcorper eu vel ex. Nullam pretium aliquet mollis.

Integer odio massa, pretium vitae laoreet nec, auctor ac magna. Nullam vel finibus turpis. Etiam lobortis metus id elit malesuada, a posuere leo mollis. Morbi consectetur tellus sed rhoncus ultrices. Nulla tincidunt accumsan sem, et iaculis mi imperdiet iaculis. Vestibulum ac sem vitae massa molestie euismod. Aliquam vitae lectus ex. Curabitur auctor sollicitudin velit, a laoreet mauris euismod a. Nullam vulputate, felis in tincidunt vehicula, libero nibh rhoncus urna, id pellentesque dui sem et lorem. Ut non consequat diam. Donec maximus id enim sed tincidunt. Curabitur laoreet dolor magna, ut laoreet velit semper ut.

Ut sagittis blandit ante. Sed lorem purus, pretium pellentesque purus aliquam, fringilla aliquet metus. Integer rutrum ultrices ante ac iaculis. Sed nec semper turpis, eu aliquet mauris. Cras sed dui mauris. Cras id imperdiet urna. Nulla cursus luctus auctor. Morbi in aliquam eros. Vestibulum ante ipsum primis in faucibus orci luctus et ultrices posuere cubilia curae; Proin blandit ipsum eget augue mollis, vitae bibendum nibh iaculis. Morbi nisi nisl, consectetur at sem vel, interdum vehicula purus. Vestibulum id ipsum semper, facilisis ex eu, rutrum lorem.

Nullam auctor libero vitae eros cursus, sit amet vehicula orci convallis. Maecenas iaculis vulputate leo eu viverra. Donec pretium tortor ac odio tristique aliquet. Nulla imperdiet urna et ligula vulputate iaculis in sollicitudin ante. Integer interdum ligula leo, et fringilla dui facilisis euismod. Proin cursus auctor magna, at porttitor dolor ullamcorper eu. Phasellus vitae volutpat ligula. Pellentesque nec mauris aliquet, volutpat nulla quis, auctor odio. Fusce neque velit, porta quis consequat a, auctor vitae nulla. Vivamus accumsan cursus mauris eu condimentum.

Phasellus ut diam vitae orci fermentum finibus. Aliquam condimentum porta purus at interdum. Vestibulum consequat sit amet nisl eu laoreet. Vivamus finibus varius nulla, ac pretium orci vehicula vitae. Nullam dignissim iaculis accumsan. Sed eget felis et purus facilisis scelerisque eget vitae purus. Morbi dignissim justo sit amet congue sagittis. Sed placerat dui et lectus rhoncus cursus. Etiam a congue arcu. Duis ullamcorper elit metus.

Duis sodales eu libero sed fermentum. Fusce pretium elit sit amet ante luctus cursus. Nulla facilisi. Sed imperdiet consequat erat quis tempor. Sed eu turpis sed diam tincidunt pulvinar eget sed metus. Vivamus pharetra erat lacus, ac mattis justo dapibus id. Aenean nec nulla libero. Proin sit amet justo consectetur, luctus odio sed, auctor ligula. Morbi nibh nisi, vehicula ut facilisis a, pulvinar hendrerit eros.

Donec tempus euismod lorem id eleifend. Nam at nunc eu erat bibendum efficitur eu lobortis felis. Duis dignissim leo libero, in consectetur orci vestibulum eu. Aliquam cursus, est nec cursus lobortis, diam felis rhoncus nulla, non ullamcorper lectus ligula eu neque. Interdum et malesuada fames ac ante ipsum primis in faucibus. Maecenas id augue non sem aliquam facilisis. Etiam tristique scelerisque blandit. Ut ac urna at est porttitor porta. In id sem metus. Duis ut quam ut nibh pulvinar vulputate ac quis nisi. Nullam commodo turpis quis ornare sagittis. Cras sed metus leo.

Donec laoreet molestie ante, ac scelerisque ipsum efficitur blandit. Donec gravida efficitur est non fermentum. Suspendisse quis enim non dui sollicitudin imperdiet ac eu ante. Vivamus vestibulum dolor id lorem porta tincidunt. Integer ex purus, suscipit ac cursus in, laoreet in nulla. Nulla ultrices nulla vitae nunc rutrum dignissim. In nec velit vitae nisl consectetur tristique id eu purus. Nam a elit neque. Cras nibh augue, bibendum sit amet ex in, tincidunt malesuada lectus. Cras sed metus ex. Vestibulum dui ipsum, iaculis in felis eu, mattis gravida ipsum.

Proin pulvinar purus nulla, sed laoreet nisl sollicitudin eget. Class aptent taciti sociosqu ad litora torquent per conubia nostra, per inceptos himenaeos. Sed dignissim facilisis sapien. Sed cursus, nulla vel lacinia porttitor, felis leo imperdiet metus, vel vestibulum libero mi at elit. Aenean ligula sem, ornare dignissim est eu, lacinia ultricies augue. Donec convallis ipsum et nisi rhoncus, vitae lobortis enim semper. Aenean non lectus ut ipsum congue condimentum. Duis bibendum varius consequat. Nunc ac commodo leo. Praesent tincidunt eu mauris in pellentesque. In sit amet eros ultricies, lacinia tortor in, tincidunt eros. Nunc accumsan, sapien ut luctus tristique, magna turpis vulputate sapien, vitae ullamcorper nisl metus et lectus. Donec semper ipsum in nunc euismod, consectetur condimentum justo laoreet. Integer blandit nisi orci, sagittis lobortis augue viverra ut. Fusce sed porta orci, sit amet dictum velit.

Aliquam id blandit enim. Vestibulum eget semper augue, nec imperdiet velit. Donec sed nulla in felis egestas pharetra. Donec elementum neque ac aliquam posuere. Nullam vel eros ac justo euismod pretium vel accumsan magna. Nulla maximus at nulla sed aliquam. Nunc ipsum dolor, volutpat nec lectus sit amet, bibendum malesuada leo. Vestibulum lacinia mattis sem, at tempus arcu laoreet non. Ut viverra sollicitudin molestie. Donec convallis tellus sit amet tristique ultrices. Sed tortor dui, scelerisque faucibus finibus eget, fringilla ut quam. Nullam lacinia lacinia ullamcorper. In sollicitudin mi urna, sed mattis metus imperdiet vel. Nam porttitor porttitor fermentum.

Curabitur quis iaculis erat. Lorem ipsum dolor sit amet, consectetur adipiscing elit. Praesent efficitur, diam sed tincidunt eleifend, nunc sapien consequat nunc, sed mollis magna sem eu urna. Fusce venenatis ligula at ex tristique porttitor. Suspendisse varius finibus odio. Cras pellentesque ultrices vulputate. Nullam quis ligula dignissim, auctor velit consequat, posuere mauris. Duis ornare sollicitudin nulla, quis blandit mi vehicula vitae. In consectetur ligula et mi cursus, eleifend ultrices ligula varius. Phasellus facilisis sem eu cursus iaculis.

Proin vitae augue eu libero bibendum placerat. Cras gravida elit dolor, in ultricies dui molestie non. Pellentesque eleifend est enim, in pellentesque sapien scelerisque eget. Curabitur faucibus dui vel ex egestas efficitur. Sed id dignissim est. Nulla sem mauris, convallis id venenatis in, semper quis leo. In in ligula aliquet, venenatis ligula quis, fermentum lectus. Phasellus semper sapien mi, gravida tristique elit vulputate bibendum. Duis eros lorem, placerat eget laoreet in, vehicula et nibh.

Donec non neque facilisis, molestie ligula ac, faucibus tellus. Sed dictum in ligula sit amet iaculis. Nunc vel iaculis elit. Aliquam nec sem at lacus finibus venenatis. Donec enim eros, gravida vel rutrum id, mattis ac lectus. Donec ut mollis lorem. Phasellus dictum lacus id dictum placerat. Nunc nulla enim, molestie ultricies maximus et, vehicula vel purus. Integer nec leo vitae felis ultrices ornare. Donec quam nibh, maximus ut efficitur eu, ullamcorper ut tortor. Donec semper sed nisi sed placerat.

Aliquam rutrum malesuada dolor, vitae aliquet lectus sodales a. Donec sit amet erat orci. Aliquam varius cursus mollis. Cras varius elit nec mauris imperdiet hendrerit. Quisque nec facilisis nisl. Etiam in blandit neque, nec dictum nisi. Praesent non ligula id ante porttitor luctus at at ante. Pellentesque habitant morbi tristique senectus et netus et malesuada fames ac turpis egestas. Sed fermentum commodo nibh, ut ullamcorper dolor ornare vitae. Sed nibh orci, rutrum in porttitor finibus, sagittis non libero. Vivamus varius lobortis nisl, in congue nulla finibus vitae. Nunc luctus diam ac augue faucibus, ut tincidunt neque semper. Aenean in venenatis lectus.

Duis accumsan ante ut quam tempor, quis fringilla orci sagittis. Quisque at mi ullamcorper, imperdiet turpis ac, condimentum diam. Aliquam placerat, augue sit amet iaculis bibendum, tortor mi volutpat est, sit amet accumsan sapien erat nec diam. Mauris at accumsan dui. Morbi vehicula odio sed neque tincidunt, ac semper erat vulputate. Fusce et massa in neque aliquet semper a convallis sem. Praesent pellentesque viverra tortor tristique pharetra. Donec mollis erat neque, sed pulvinar tellus fermentum in. Morbi pharetra ex purus, eu aliquet eros condimentum ac.

Donec non ipsum velit. Phasellus posuere, lorem et tristique tristique, arcu diam rhoncus magna, et finibus quam magna sit amet tellus. Lorem ipsum dolor sit amet, consectetur adipiscing elit. Integer tincidunt lobortis tempus. Interdum et malesuada fames ac ante ipsum primis in faucibus. Praesent in risus faucibus, feugiat neque eget, sodales augue. Duis maximus posuere sapien, cursus congue nibh ornare ut. Vestibulum nec ex porttitor nibh euismod porttitor. Pellentesque congue, lectus vitae sagittis sagittis, arcu enim iaculis libero, eu tristique orci est in nisi. Etiam varius odio ac condimentum euismod. Nam turpis dui, semper a viverra sit amet, blandit non elit. Aliquam vitae felis quis diam cursus ornare laoreet et ante. Cras tortor felis, rhoncus sit amet ligula et, dapibus commodo ex.

Pellentesque accumsan a orci eu venenatis. Quisque facilisis mi vel eros eleifend egestas. Vivamus cursus mauris sed purus commodo placerat. Quisque imperdiet elit in erat rutrum pretium. Pellentesque nec viverra ipsum. Etiam convallis enim sed tristique ultrices. Sed maximus at tellus eu consectetur. In hac habitasse platea dictumst. Sed pharetra commodo ornare. Donec vel lorem ante. Morbi ornare bibendum risus vel posuere. Vivamus molestie tristique dui, in bibendum neque rhoncus nec. Nunc convallis egestas turpis sit amet porttitor. Aenean malesuada sem semper ipsum vulputate, ac condimentum augue lacinia. Curabitur varius varius eleifend.

Cras blandit dolor at luctus varius. Quisque rhoncus massa ut lorem bibendum gravida. Ut eget vestibulum nibh, at lacinia orci. Duis venenatis, sem nec feugiat dapibus, quam ex laoreet elit, non egestas diam mauris vitae odio. Morbi est risus, finibus vel mauris auctor, eleifend vehicula mi. Donec ultricies quis quam ut molestie. Etiam accumsan lacus non egestas pulvinar. Mauris viverra eleifend nibh sed luctus. Cras nec dictum lacus. Vestibulum mollis hendrerit urna, sed commodo arcu rhoncus eget. Morbi bibendum elit eu odio imperdiet scelerisque. Duis at rutrum erat. Cras varius at sapien non suscipit.

Quisque sed ornare libero. Donec commodo, turpis non luctus volutpat, dui libero commodo odio, in laoreet tellus turpis sit amet erat. Donec fermentum odio tincidunt, sollicitudin leo vitae, malesuada odio. Vivamus tristique egestas purus, et luctus mauris molestie eu. Ut at nisl sit amet tellus mollis efficitur ut eu sem. Aliquam ac libero aliquam, mollis nisl ac, placerat dui. Proin cursus arcu imperdiet, iaculis odio at, ornare velit. Vivamus ac mattis ligula. Integer pharetra tempor suscipit. Sed dapibus eros congue leo sollicitudin ultricies eget vitae neque.

Mauris ac malesuada elit, vitae laoreet massa. Donec accumsan est purus, quis pellentesque mi sodales id. Vivamus id blandit leo. Etiam pretium nisi dui, tempor congue arcu ultricies vel. Integer porta hendrerit lobortis. Nunc luctus, tortor ac sagittis congue, metus nulla molestie urna, ut tincidunt nunc nisi et tortor. Cras blandit at justo ac dapibus. Curabitur in rhoncus neque, nec blandit leo. Ut quis consectetur arcu, sit amet sodales diam. Nunc dapibus auctor risus, nec fermentum tellus ullamcorper et. Duis laoreet interdum lacus ut finibus. In finibus urna in mi aliquam, vitae varius libero euismod.

Maecenas ipsum erat, consectetur nec nunc a, pulvinar pharetra ligula. In maximus neque eu turpis volutpat convallis. Donec maximus eget risus nec luctus. Mauris vel velit ac nunc tincidunt posuere. Nunc id elit id sem varius vulputate. Praesent ultricies, orci sed scelerisque commodo, sapien diam ornare augue, id suscipit purus lectus sit amet turpis. Vestibulum dignissim et eros vitae facilisis. Nunc sed nibh pretium, elementum lacus id, egestas dolor. Curabitur interdum, sem sit amet congue mollis, mi nisl tincidunt mauris, ut congue tortor massa at est. Integer eu nisl et orci semper consectetur ac eget purus. Sed porta tortor efficitur ante tincidunt lacinia. Etiam fringilla rhoncus enim. Morbi elementum nisi sed sem imperdiet molestie non eleifend massa.

Donec at mi nisl. Etiam interdum eros ac tincidunt varius. Cras a ultricies elit. Nullam sed odio mattis, consequat tellus nec, ornare quam. Morbi vel mattis erat. Aliquam felis massa, porttitor non felis id, porta auctor est. Sed a metus erat. Praesent mauris felis, efficitur nec auctor vel, blandit ut nunc. Proin arcu nisi, ultrices vestibulum felis a, scelerisque tristique dui. In vel finibus nulla. Vivamus viverra vehicula velit, a sodales magna vehicula quis. Morbi nisl tellus, imperdiet et turpis quis, faucibus iaculis lacus. Aenean vel nibh libero. Phasellus hendrerit, quam a consectetur congue, mi mauris rutrum tellus, vitae hendrerit nisi elit nec tellus.

Etiam ultrices odio id nisi condimentum, sed hendrerit odio sodales. Suspendisse eros purus, cursus a mauris nec, tempor viverra diam. Mauris dui erat, ornare eget suscipit eget, efficitur a sem. Duis et diam ut quam ultrices luctus. Sed laoreet elit sed dui hendrerit malesuada non auctor magna. Nulla facilisi. Duis pretium quam lacinia, pharetra nibh sed, cursus sapien. Mauris nulla erat, consequat commodo ipsum ut, sagittis rhoncus leo. Sed id ligula metus. Aliquam ultrices tristique tortor id venenatis. Sed eleifend pellentesque vulputate. Duis condimentum sapien at maximus congue. Aliquam lacinia mattis turpis in scelerisque. Pellentesque at dui auctor, rhoncus quam id, fermentum neque. Vestibulum egestas leo eget nisl tempus lacinia.

Vestibulum sodales nibh tincidunt dolor ullamcorper, ac ornare tellus placerat. Nam ut libero consequat, faucibus ante eget, mollis magna. Ut tempor velit sit amet interdum hendrerit. Morbi efficitur mollis efficitur. Etiam quis elit iaculis, sagittis turpis quis, pulvinar ante. Curabitur malesuada, justo id egestas dictum, lorem enim interdum ex, tincidunt ornare massa mauris sit amet tellus. Duis faucibus lacinia ligula at pretium. Aliquam sit amet arcu a dui rhoncus venenatis nec sit amet neque. In et lorem quis nulla dapibus aliquet. Suspendisse quis bibendum quam, non dignissim turpis. Aliquam erat volutpat.

Pellentesque vestibulum ligula convallis nibh venenatis ornare. Praesent aliquam nisi a pellentesque aliquet. Donec mollis sem dolor, at malesuada sapien porta eu. Praesent volutpat lorem eu erat facilisis, quis fringilla ex congue. Aliquam tempus lacus in ligula fringilla, ut rhoncus libero tristique. Maecenas suscipit porta arcu, vel cursus mi imperdiet ac. Fusce nec libero dignissim, varius arcu vel, placerat nisi. Quisque enim erat, rhoncus vel sapien eget, molestie blandit nisi. Praesent luctus efficitur venenatis. Nulla consectetur metus eu elit blandit dapibus. Duis non tortor consectetur, consequat risus eget, pharetra urna.

Vestibulum dignissim malesuada velit, non vehicula quam. Phasellus scelerisque et sapien et mattis. Sed nec ante non ante auctor pretium vel non dui. Duis quis velit mollis, commodo magna vel, cursus lorem. In eu leo rhoncus, mollis sem nec, varius libero. Sed dignissim lorem elit, vitae auctor mi egestas vitae. Maecenas viverra mauris sed vulputate imperdiet. Sed vitae iaculis lacus. Nulla posuere nulla nibh, vitae malesuada lorem elementum ac. Proin venenatis nisl vitae purus lacinia convallis. Proin molestie nulla sem, ut tincidunt ligula gravida sit amet. Sed sit amet blandit ipsum, vitae molestie sem.

Maecenas et purus at sem egestas tincidunt. Pellentesque vestibulum ante vitae massa suscipit, eu fermentum lorem accumsan. Integer vel lacinia magna, et tristique metus. Sed vehicula erat nec consequat imperdiet. Aliquam tincidunt tempus fringilla. Aliquam aliquam sapien ut felis eleifend, in pellentesque tortor placerat. Curabitur a tellus a nulla euismod tristique ac nec orci. Pellentesque ut vehicula tortor, ut luctus mi. Vestibulum ante ipsum primis in faucibus orci luctus et ultrices posuere cubilia curae; Suspendisse id libero porttitor, pharetra nisl at, maximus metus. Suspendisse tempus sollicitudin odio a dictum. Nullam vestibulum dictum ex at rhoncus. In hac habitasse platea dictumst.

Phasellus semper orci sed ultricies efficitur. Vestibulum congue arcu vitae diam accumsan condimentum. Sed non purus malesuada, cursus lacus ac, malesuada orci. Aenean malesuada auctor fermentum. Pellentesque habitant morbi tristique senectus et netus et malesuada fames ac turpis egestas. Curabitur vel efficitur lectus. Vivamus nisi est, bibendum et turpis ut, sollicitudin vulputate lectus.

Vestibulum ac erat nec ex semper molestie ac sed erat. Maecenas efficitur lacus ut ligula finibus imperdiet. Suspendisse tristique, mi eu ultricies congue, mauris quam lacinia elit, vehicula dictum orci mi vel magna. Aenean turpis quam, euismod vitae sagittis blandit, rhoncus tempus nibh. Donec commodo lacus nec convallis fermentum. Sed eu nibh efficitur neque faucibus lobortis scelerisque et tellus. Etiam sed arcu odio. Ut volutpat eget lorem vel cursus. In et ante nec magna vehicula mollis. Suspendisse sed dui interdum, efficitur lectus vitae, tincidunt sapien. Donec euismod sit amet massa in euismod. Sed ac consequat est.

Donec molestie elit vitae lacus euismod, at vehicula sapien egestas. Nullam in urna pulvinar quam fermentum finibus in volutpat urna. Vestibulum non justo convallis lectus viverra porttitor nec quis ligula. Suspendisse leo tortor, bibendum sit amet nulla quis, ullamcorper gravida lacus. Nam commodo consectetur sem, a laoreet nulla accumsan quis. Vestibulum sodales ex dolor, quis gravida neque vulputate id. Sed eu nulla metus. Mauris ut tristique tellus. Cras in vulputate urna, at sodales dui. Nullam auctor sed elit eu aliquet.

Interdum et malesuada fames ac ante ipsum primis in faucibus. Ut eget elit nec lorem maximus varius in eget tellus. Maecenas sed malesuada dolor. Nunc vitae fringilla urna. Etiam nisi tellus, porttitor ac vulputate id, aliquam ut elit. Etiam accumsan arcu lacus. Proin in mi tortor. Donec vestibulum felis at mattis sagittis. Nunc viverra efficitur velit, mattis tempor lectus ullamcorper vel. Integer quis arcu eu purus egestas tincidunt non euismod orci. Nulla vitae felis est. Phasellus sed enim sollicitudin, vestibulum ligula euismod, lobortis nunc.

Donec scelerisque lorem at vehicula tempus. Sed feugiat nec mauris quis rhoncus. Vestibulum ante ipsum primis in faucibus orci luctus et ultrices posuere cubilia curae; Pellentesque eu dapibus dui. Maecenas laoreet laoreet sapien, facilisis posuere diam commodo eu. Vivamus vestibulum quis diam vitae sodales. Quisque id gravida mauris.

Mauris malesuada viverra egestas. Nullam quis nisl sit amet neque ultricies rhoncus vel sed dui. Vivamus congue odio ac sapien imperdiet pretium. Maecenas bibendum urna at massa vulputate, vel blandit quam porttitor. Curabitur scelerisque nunc quis quam mattis, at molestie lacus vestibulum. Morbi sagittis orci ante, sed rutrum lacus consequat ut. Integer a porta lacus. Aenean at tortor mauris.

Praesent quis maximus sem. Curabitur congue quam lorem, sit amet egestas neque malesuada aliquet. Proin blandit sem odio, vel maximus dolor ullamcorper ut. Donec feugiat ligula in aliquam imperdiet. Fusce eget tortor sit amet felis congue consectetur quis vel arcu. Etiam vestibulum lacus sit amet dictum ullamcorper. Sed sodales turpis id ante tincidunt molestie. In quis malesuada sapien. Donec placerat rutrum ipsum, sit amet posuere massa cursus rhoncus. Phasellus tempus mollis nulla ut volutpat. Nullam quis dui at magna auctor hendrerit a non tortor.

Sed rhoncus neque ut eros ullamcorper, at posuere leo consectetur. Pellentesque faucibus leo ac dolor cursus, at viverra mauris lacinia. Integer ante lectus, euismod molestie placerat ut, dictum et mi. Suspendisse potenti. Nam consequat sapien nisl, id efficitur nisi condimentum ac. Aliquam egestas orci nec consectetur mollis. Curabitur vehicula sagittis urna, eget mollis sem molestie nec. Morbi semper volutpat nisl, ut porttitor ligula luctus sed. Praesent varius luctus eros, vitae consequat est laoreet nec. Nullam rutrum, sapien vel laoreet pellentesque, quam diam pellentesque nunc, ac porta libero lectus ullamcorper dui. Mauris sit amet pretium nulla.

In eu suscipit tellus. Quisque in pharetra orci. Quisque odio ligula, ullamcorper porttitor consectetur a, placerat id eros. Nunc eu sapien nisi. Mauris pharetra, nunc et eleifend molestie, nisl dolor imperdiet nulla, nec lobortis lectus magna ac tortor. Suspendisse eget mollis leo, hendrerit cursus ipsum. Sed vulputate bibendum tellus, at vehicula augue fringilla quis. Duis non nibh placerat, elementum nisi faucibus, bibendum eros. Maecenas eget suscipit sapien. Sed consequat odio euismod lectus tincidunt egestas. Nunc turpis odio, molestie quis lacus sed, varius aliquet turpis. Cras id dui fringilla, blandit mauris volutpat, facilisis felis. Aliquam aliquet volutpat finibus. Suspendisse enim turpis, volutpat nec velit quis, pellentesque lacinia augue. Vivamus laoreet purus dui, eget consectetur arcu suscipit ac. Ut at dolor ac urna malesuada pharetra.

Donec malesuada consequat lorem. Fusce pharetra, elit eu finibus aliquet, diam dolor finibus dui, quis egestas mauris mi ut nisi. Praesent sed sollicitudin lacus. Donec ornare tellus et nulla ornare, in malesuada lacus lacinia. Orci varius natoque penatibus et magnis dis parturient montes, nascetur ridiculus mus. Aliquam magna metus, molestie sit amet blandit vel, hendrerit nec ante. Donec dignissim efficitur rhoncus.

Morbi non odio augue. Vestibulum scelerisque, ligula eget efficitur vehicula, sem augue rhoncus velit, eget finibus massa felis maximus diam. Proin nec gravida augue. Donec non rutrum turpis. In efficitur posuere sem in sagittis. In bibendum euismod diam vitae facilisis. Aliquam tristique, lectus vel dapibus luctus, arcu lacus suscipit risus, eget faucibus ex risus porttitor ante. Fusce nec risus quis quam cursus volutpat. Nulla eleifend, tellus vel scelerisque ornare, lacus purus tristique arcu, a malesuada turpis elit nec ex. Quisque convallis scelerisque efficitur. Ut quis metus nec enim vestibulum aliquet non ut nisl. Vestibulum tempor dolor at efficitur lobortis. Duis quis pharetra est, et aliquet nisl. Pellentesque ut neque volutpat, blandit dui sed, aliquam lectus. Fusce vitae tortor lobortis, dignissim elit vel, tincidunt nulla. Nunc vel ex id odio convallis blandit eget sed felis.

In sapien metus, laoreet eu aliquam a, faucibus eget nisl. Aliquam lobortis ac eros in rutrum. Morbi pellentesque est ullamcorper tellus congue, quis porta lectus molestie. Quisque sagittis quis lacus eu venenatis. Aliquam erat volutpat. Mauris facilisis turpis vel dolor faucibus ullamcorper. Quisque blandit non sapien a pellentesque. Etiam volutpat venenatis lacinia. Vivamus viverra mi eget eleifend iaculis. Aliquam ut sollicitudin urna. Sed eleifend sem vitae ante varius suscipit. Pellentesque ut velit porttitor felis finibus lacinia vel id lacus. Phasellus tincidunt justo ac massa tincidunt vestibulum. In pulvinar massa vel orci faucibus, sed viverra eros luctus. Integer finibus facilisis risus, vel malesuada eros ultrices a. Class aptent taciti sociosqu ad litora torquent per conubia nostra, per inceptos himenaeos.

Etiam sit amet pulvinar enim, ut luctus turpis. Sed aliquet malesuada felis ut auctor. Mauris in turpis quis dolor auctor euismod eu sed ipsum. Vivamus id facilisis sapien. Suspendisse at sapien quis leo mollis facilisis. Vestibulum accumsan vulputate dolor, vitae malesuada nunc efficitur id. Integer faucibus dui libero, vel egestas urna hendrerit aliquam. Maecenas eget tristique libero, quis pellentesque quam. Pellentesque metus nisi, venenatis viverra elementum sit amet, consequat ut leo. Vivamus rutrum dui quis ex pharetra pharetra. Etiam fermentum dui nec risus pulvinar euismod. Aliquam feugiat at est vitae tristique.

Vivamus vitae nibh nec lorem finibus molestie vitae non libero. Mauris et massa congue, cursus metus a, malesuada erat. Vivamus vitae dictum libero. Curabitur in tincidunt quam. Donec laoreet lacus eu feugiat cursus. Morbi finibus nisi dui, nec feugiat tortor posuere a. Mauris id aliquet dui. Nam est mi, pellentesque eget sollicitudin in, sagittis eu justo. Phasellus id aliquam erat. Praesent sed placerat libero. Donec porta placerat faucibus.

Etiam quis ex semper, lacinia quam eget, scelerisque erat. Nullam aliquam sollicitudin posuere. Etiam fermentum imperdiet laoreet. Donec a scelerisque erat. Nulla at nunc enim. Pellentesque habitant morbi tristique senectus et netus et malesuada fames ac turpis egestas. Ut fringilla auctor est quis congue. Morbi faucibus nisl tellus, et blandit nulla efficitur sed. Nunc finibus mattis metus, sit amet auctor neque convallis aliquet. Vivamus nulla lacus, vehicula eu nibh eu, aliquet ultrices augue.

In nunc felis, faucibus non nibh at, dictum posuere metus. Curabitur id tortor pulvinar dolor tempus dignissim. Pellentesque sit amet quam sollicitudin, accumsan purus vel, tempus sapien. Sed rhoncus ornare nisl, in vehicula urna ultricies eu. Vivamus venenatis libero eu eros bibendum scelerisque. Proin laoreet mauris quam, ut dictum erat convallis non. Nulla facilisi. Nunc in lectus scelerisque, iaculis nisi eget, ullamcorper nunc. Vivamus sit amet enim enim. Donec accumsan luctus enim eget consequat. Morbi egestas mi vel libero vulputate, iaculis sagittis lorem elementum.

Interdum et malesuada fames ac ante ipsum primis in faucibus. Cras sit amet massa lacinia risus malesuada faucibus nec sed magna. Praesent sed ex blandit, vehicula diam nec, porta massa. Fusce molestie eros vel suscipit pulvinar. Duis finibus interdum interdum. Integer luctus felis at scelerisque aliquet. Phasellus eget vestibulum eros. Proin leo augue, faucibus condimentum lacus eu, luctus fringilla odio. Nulla a euismod magna. Praesent ex velit, porta eget velit vitae, tincidunt pellentesque velit. Morbi consectetur ex quis dolor ornare, id convallis tellus facilisis. Ut at orci mauris. Quisque elementum fermentum leo at maximus. Donec imperdiet blandit eros in auctor. Curabitur elementum ipsum sit amet sapien vehicula, et tempus tellus tristique. In ex eros, blandit eu nibh ac, euismod maximus erat.

Duis mattis consectetur imperdiet. Cras id hendrerit enim. Sed ornare ligula turpis, in vehicula elit pharetra ac. Integer vel augue eget urna condimentum tristique. Pellentesque habitant morbi tristique senectus et netus et malesuada fames ac turpis egestas. Suspendisse lorem diam, bibendum vel augue sed, consectetur ornare libero. Ut a laoreet sem. Nam a placerat nisi. Curabitur odio libero, volutpat eu leo in, gravida malesuada tellus. Mauris pulvinar elit quis fringilla molestie. Morbi sed sollicitudin ex. Nunc aliquet nisi posuere, aliquam enim sodales, elementum est.

Nunc vitae nunc ut ipsum mollis tempor ac vitae nisi. Nunc sodales diam et metus imperdiet efficitur. Nulla ac orci nisl. Vestibulum maximus ornare est non pulvinar. Ut eget sollicitudin nunc. Interdum et malesuada fames ac ante ipsum primis in faucibus. Mauris eu velit sed ex maximus tincidunt at eu massa. Quisque congue pharetra nulla, id fermentum sapien ornare consectetur. Orci varius natoque penatibus et magnis dis parturient montes, nascetur ridiculus mus. Nam vehicula pulvinar libero quis sollicitudin.

Donec porttitor massa ut enim luctus ullamcorper. Sed aliquam vel nulla dictum accumsan. Cras blandit, libero rhoncus dapibus tincidunt, tellus nulla facilisis augue, tempus pharetra libero ex eu arcu. Pellentesque quis accumsan nibh. Nullam nec diam et mi tristique scelerisque non in tellus. Fusce vel eros ullamcorper, hendrerit odio sit amet, pharetra massa. Maecenas vestibulum at tortor quis semper. Fusce elit urna, porta nec orci id, venenatis volutpat mi. Morbi nec dolor in felis pellentesque accumsan. Quisque eu finibus libero. Aliquam erat volutpat. Pellentesque lectus quam, eleifend ac faucibus in, viverra sed felis.

Aenean iaculis purus sed tellus ultrices posuere. Donec urna diam, rutrum a nisl ornare, viverra gravida elit. Lorem ipsum dolor sit amet, consectetur adipiscing elit. Quisque id semper lorem, at volutpat mi. Phasellus pulvinar venenatis odio, ac mollis risus. Phasellus ut odio justo. Vestibulum ante ipsum primis in faucibus orci luctus et ultrices posuere cubilia curae; Quisque vel erat et quam tempus pellentesque ac id justo. In est ipsum, lobortis et turpis vel, tristique hendrerit eros. Morbi maximus.
